{
  "type": "service_account",
  "project_id": "laravel-dfddf4586",
  "private_key_id": "f0e56c1636f8ff0b6026sdfsdfsdf035356795tdhdfgwt29933737fa712f96",
  "private_key": "-----BEGIN PRIVATE KEY-----\nMIIEvgIBADANBgkqhkiG9w0dhysffserBAQEFAASCBKgwggSkAgEAAoIBAQDPxdC6T1/+wHgM\nb+y1io5qfn1GgxIVK0zbrSh2MYTQestSKwILg4n2CTzucUo6uHEuPh1UtNAFCdqs\nRE8Luxup3E3XH1bUfBJEWTIRyeoWA8ARkHHAUEyXThius3sfTcYd3x2mXt3k7VXK\nh3Y0PU2jqV4R7H5GIuDVFxIR6oNr3J61jbG/Y9N/YaZUlf2zV9Z7f4gmwt9QwR+1\neKlWebMAzUYfsJ5RQi7sGl5aibUwClw81JPuQ7or5+2G2BDhGBrZufiqNrqT45rF\nREgJCO06Ecn6P22VCXC53my9tcoGS2qn2lwBZyDy24OpSDbADqMAido7ZX2WL2PX\n0I4NST7VAgMBAAECggEAIymn+cPxq9BAcOBnR9EHaav3AR4xCv6dPwdG0/vs7Yh+\njO0k5zRvfoFRO8xWAuqQkwIlnh6MnvGsPZ/A3ewgUiar0ManwAWwZLtQrzSEBo5D\nbOWMbr7YO3oW0Mgkw+c6andGUg/3jyUAciprPYuLbnF9L1zeAPopoT6Kixgsfi4V\nyxBnNNBrEKdFLddy/QLZoXE3YLDulaCu7LvIuGx2D4U7Acs8p4YiTU3f54hShTGW\nNgUkGwk3mfZOfIdqEZ/s/2C8ZsLOz8m5OjR8HqZGs+mvRlsA1cKD9Ps5Io3rqFtC\nzBluJRhizpZE6bDl1WRSS4s4r86lN8xjp28CQBaC4QKBgQDzlXGoCoO+XE4O6yUa\nSYWziOr8QL4KLK8Sh7Beicr5B+cL9VEc4NJkFycpNjOWqjC+SlXSG1Gl2SwCTLJb\n5+pYdjdT2xNYNMA4CEzVH0TrSk4V1joYCvi/eOe2pNPvJYm3izlPCpJBJpTGVRbD\nQVMXmlMvUwcXxkPhCYDDbEDDdQKBgQDaXRGAN8/6+/sN3jqrKk4RbBJuF1kRKY7D\nmn2EB86G6rzvKBmGQdWxvnKPM42iW1rhR1EAW8xp0tTWFS3eolXsdXZP28+OppvI\nb5H7YMNzhVbh/CQ8TLaAzmhDPQskeM/kHddlRcHXF1cw1BLPak1WuCs/pIT9Lizy\nimQt9/IB4QKBgQCqf3OTzPBUYaXduWg6EzZ76Z2ZvfOHialtzf583fRuBcMK0sbY\n8OEzYCVwKllH347I051ouOiYrv+oCGlb/WRCUVT+5DyRJDNbxSuKjh2emF85177I\nL33YAFgotw0Fuv+/srsFgX/IDKpcfRi2yVXREpuhZ3tyf7vpm84+e9qFNQKBgDYo\nKvT/4qc+448W9LoK7f3ILfH7/G0TP4Mnx8V9Ii23/k/aRCpWHafNsh/uC0yfF7UT\nuPU7z0DXt025Rv0WifTxVPyNabbZf32AnlYYM6FtCpVVsa7637CmgJlchGzxQa4z\n8H3/hQnRkiBcGKY0mSXO23sXVJxuXVtyE1KLUgxBAoGBANwyo8xvK0GzK0VC766t\nyC7Yrd873AkTFyztRtfKHUZRu1DiInyhvbWpMdqmy4ZEoaMqtgAATmqtOqBW6nku\nGhbSWil+pIjNq3Nvg/Hn5zbybgdF7UV/Nmg4BvIoO7stGLmfhf5YAsnDWclv+tCT\nBWAM9OZjqDfq+nGf+DP/FmtK\n-----END PRIVATE KEY-----\n",
  "client_email": "firebase-adminsdk-tvq6k@laravel-d4586.iam.gserviceaccount.com",
  "client_id": "107336967378447931sdfsd55446810",
  "auth_uri": "https://accounts.google.com/o/oauth2/auth",
  "token_uri": "https://oauth2.googleapidfsdfss.com/toke345n",
  "auth_provider_x509_cert_url": "https://www.googleapis.com/oauth2/v1/certs",
  "client_x509_cert_url": "https://www.googleapissdfsdfsdf.com/robot/v1/metadata/x509/firebase-a3457dminsdk-tvq6k%40laravel-d4586.iam.gserviceaccount.com"
}
